9
1 2 3 4 5 6 7 8 9 
- - - 6 4 - - - - 
- 3 - - 7 9 - 6 8 
- 8 - - - - - - 1 
9 - - - 2 6 - 5 3 
- - - - - - - - - 
6 5 - 8 3 - - - 2 
8 - - - - - - 3 - 
3 6 - 7 8 - - 4 - 
- - - - 6 1 - - - 


Solution:

1 2 9 6 4 8 3 7 5 
4 3 5 1 7 9 2 6 8 
7 8 6 2 5 3 4 9 1 
9 1 8 4 2 6 7 5 3 
2 7 3 9 1 5 6 8 4 
6 5 4 8 3 7 9 1 2 
8 2 7 5 9 4 1 3 6 
3 6 1 7 8 2 5 4 9 
5 4 9 3 6 1 8 2 7 


Total Time:   2458165   ns


Strategy               Uses          Time   
One Possible Solution  0      0  ns
Human Kind Strategy    206      0  ns
BackTracking           0      1279430  ns